20  0.054472
21  0.037034
22  0.041356
23  0.043824
24  0.049293
26  0.075140
27  0.048602
28  0.057417
29  0.049146
30  0.043566
31  0.037456
32  0.054572
33  0.053266
34  0.068777
35  0.047749
37  0.076655
38  0.084499
39  0.077985
40  0.085568
41  0.092825
42  0.118450
44  0.101151
45  0.098228
46  0.076172
47  0.094574
48  0.106886
49  0.086888
50  0.099212
51  0.099817
52  0.104553
53  0.087880
54  0.083913
55  0.076150
56  0.092808
57  0.090359
58  0.090629
59  0.089330
61  0.102176
62  0.097811
63  0.105904
64  0.095657
65  0.084539
66  0.106057
67  0.077184
68  0.100584
69  0.106929
70  0.070495
71  0.072501
72  0.095881
73  0.079207
74  0.088861
77  0.082301
78  0.074740
79  0.087411
80  0.077412
81  0.069472
82  0.085351
